<svg xmlns="http://www.w3.org/2000/svg" xmlns:xlink="http://www.w3.org/1999/xlink" width="21" height="20" viewBox="0 0 21 20">
  <defs>
    <clipPath id="clip-path">
      <rect width="21" height="20" fill="none"/>
    </clipPath>
  </defs>
  <g id="Symbol_11_1" data-name="Symbol 11 – 1" clip-path="url(#clip-path)">
    <rect id="Rectángulo_392" data-name="Rectángulo 392" width="20" height="20" fill="none"/>
    <path id="Trazado_1" data-name="Trazado 1" d="M86.938,20.473V11.147h3.185l.455-3.64h-3.64V5.232c0-1.024.341-1.82,1.82-1.82h1.934V.114C90.237.114,89.1,0,87.848,0a4.391,4.391,0,0,0-4.663,4.777v2.73H80v3.64h3.185v9.327Z" transform="translate(-74.882 0.001)" fill="#fff" fill-rule="evenodd"/>
  </g>
</svg>
