<svg xmlns="http://www.w3.org/2000/svg" width="21" height="21" viewBox="0 0 21 21">
  <g id="ic_perm_phone_msg_48px" transform="translate(12 12)">
    <g id="ic_perm_phone_msg_48px-2" data-name="ic_perm_phone_msg_48px" transform="translate(-12 -12)">
      <path id="Trazado_342" data-name="Trazado 342" d="M0,0H21V21H0Z" fill="none"/>
      <path id="Trazado_343" data-name="Trazado 343" d="M20.875,16.938a9.961,9.961,0,0,1-3.124-.5.878.878,0,0,0-.888.214l-1.925,1.929a13.2,13.2,0,0,1-5.766-5.762L11.1,10.887A.878.878,0,0,0,11.311,10a9.961,9.961,0,0,1-.5-3.124A.872.872,0,0,0,9.938,6H6.875A.875.875,0,0,0,6,6.875,14.874,14.874,0,0,0,20.875,21.75a.872.872,0,0,0,.875-.875V17.813A.872.872,0,0,0,20.875,16.938ZM13.875,6v8.75L16.5,12.125h5.25V6Z" transform="translate(-3.375 -3.375)" fill="#fff"/>
    </g>
  </g>
</svg>
