<svg xmlns="http://www.w3.org/2000/svg" width="168.946" height="29.598" viewBox="0 0 168.946 29.598">
  <g id="logo_nimbus" data-name="logo nimbus" transform="translate(-286.799 -165.379)">
    <path id="Trazado_276" data-name="Trazado 276" d="M316.578,169.248a8.941,8.941,0,0,0-7.264-3.869,9.335,9.335,0,0,0-8.822,7.173,7.088,7.088,0,0,0-7.1,2.237,8.594,8.594,0,0,0-1.922,7.493,5.482,5.482,0,0,0-4.667,5.606,5.425,5.425,0,0,0,5.189,5.634h24.59Z" fill="#911922"/>
    <path id="Trazado_277" data-name="Trazado 277" d="M346.129,177.621a1.309,1.309,0,0,0-1.232.99H330.571v3.358h-9.249v.82H335.6a1.31,1.31,0,0,0,1.232.99,1.4,1.4,0,0,0,0-2.8,1.309,1.309,0,0,0-1.232.99h-4.272v-2.538H344.9a1.309,1.309,0,0,0,1.232.99,1.4,1.4,0,0,0,0-2.8Zm-9.3,4.03a.73.73,0,1,1-.67.727A.7.7,0,0,1,336.831,181.651Zm9.3-1.9a.73.73,0,1,1,.67-.727A.7.7,0,0,1,346.129,179.749Z" transform="translate(-3.634 -1.289)" fill="#4e4d4d"/>
    <path id="Trazado_278" data-name="Trazado 278" d="M327.557,175.675h8.021a1.309,1.309,0,0,0,1.232.989,1.4,1.4,0,0,0,0-2.8,1.309,1.309,0,0,0-1.232.989H326.8v3.359h-5.479v.821h6.235Zm9.253-1.138a.73.73,0,1,1-.67.727A.7.7,0,0,1,336.81,174.537Z" transform="translate(-3.634 -0.893)" fill="#4e4d4d"/>
    <path id="Trazado_279" data-name="Trazado 279" d="M325.713,187.052v3.359h6.8a1.309,1.309,0,0,0,1.231.99,1.4,1.4,0,0,0,0-2.8,1.308,1.308,0,0,0-1.231.99h-6.046v-3.36h-5.147v.821Zm8.033,2.221a.73.73,0,1,1-.669.727A.7.7,0,0,1,333.746,189.273Z" transform="translate(-3.634 -2.195)" fill="#4e4d4d"/>
    <path id="Trazado_280" data-name="Trazado 280" d="M324.056,171.922h17.737a1.31,1.31,0,0,0,1.232.99,1.4,1.4,0,0,0,0-2.8,1.309,1.309,0,0,0-1.232.99H323.3v3.357h-1.978v.821h2.734Zm18.969-1.138a.73.73,0,1,1-.67.727A.7.7,0,0,1,343.025,170.784Z" transform="translate(-3.634 -0.498)" fill="#4e4d4d"/>
    <g id="Grupo_13" data-name="Grupo 13" transform="translate(348.973 166.174)">
      <g id="Grupo_12" data-name="Grupo 12">
        <path id="Trazado_281" data-name="Trazado 281" d="M367.452,181.179H364.69l-5.577-9.438-.056.01v9.428h-2.77v-13.81h2.77l5.577,9.428.056-.009v-9.419h2.761Z" transform="translate(-356.287 -166.383)" fill="#474648"/>
        <path id="Trazado_282" data-name="Trazado 282" d="M374.331,168.345h-2.768v-2.078h2.768Zm0,12.719h-2.768V170.8h2.768Z" transform="translate(-357.895 -166.267)" fill="#474648"/>
        <path id="Trazado_283" data-name="Trazado 283" d="M379.774,171.312l.114,1.356a3.439,3.439,0,0,1,1.237-1.143,3.552,3.552,0,0,1,1.721-.4,3.139,3.139,0,0,1,1.689.437,2.688,2.688,0,0,1,1.062,1.318,3.552,3.552,0,0,1,1.233-1.289,3.341,3.341,0,0,1,1.784-.465,2.959,2.959,0,0,1,2.394,1.049,4.894,4.894,0,0,1,.878,3.191v6.213h-2.77v-6.236a2.607,2.607,0,0,0-.379-1.625,1.386,1.386,0,0,0-1.129-.457,1.85,1.85,0,0,0-1.707.989c0,.121,0,.224.01.31s.01.172.01.261v6.759h-2.76v-6.236a2.618,2.618,0,0,0-.379-1.611,1.377,1.377,0,0,0-1.138-.471,2.161,2.161,0,0,0-.982.214,1.88,1.88,0,0,0-.7.6v7.5H377.2V171.312Z" transform="translate(-358.488 -166.778)" fill="#474648"/>
        <path id="Trazado_284" data-name="Trazado 284" d="M405.243,176.217a5.992,5.992,0,0,1-1.024,3.67,3.463,3.463,0,0,1-2.958,1.375,3.145,3.145,0,0,1-1.561-.375,3.223,3.223,0,0,1-1.133-1.1l-.208,1.271h-2.371v-14.8h2.76v5.624a3.127,3.127,0,0,1,1.067-.948,2.975,2.975,0,0,1,1.428-.333,3.4,3.4,0,0,1,2.977,1.475,6.755,6.755,0,0,1,1.024,3.931Zm-2.759-.2a5.423,5.423,0,0,0-.44-2.39,1.549,1.549,0,0,0-1.5-.883,2.053,2.053,0,0,0-1.091.273,1.874,1.874,0,0,0-.7.777v4.37a1.76,1.76,0,0,0,.707.717,2.267,2.267,0,0,0,1.1.248,1.575,1.575,0,0,0,1.5-.759,4.441,4.441,0,0,0,.427-2.152Z" transform="translate(-360.466 -166.267)" fill="#474648"/>
        <path id="Trazado_285" data-name="Trazado 285" d="M414.5,180.117a3.449,3.449,0,0,1-1.2,1.243,3.553,3.553,0,0,1-4.217-.6,4.8,4.8,0,0,1-.914-3.23v-6.193h2.76v6.227a2.672,2.672,0,0,0,.378,1.611,1.333,1.333,0,0,0,1.119.489,2.762,2.762,0,0,0,1.139-.214,1.92,1.92,0,0,0,.777-.633v-7.482h2.77V181.6H414.75Z" transform="translate(-361.748 -166.8)" fill="#474648"/>
        <path id="Trazado_286" data-name="Trazado 286" d="M425.99,178.748a.968.968,0,0,0-.441-.787,4.513,4.513,0,0,0-1.637-.588,6.594,6.594,0,0,1-2.746-1.1,2.382,2.382,0,0,1-.924-1.978,2.827,2.827,0,0,1,1.114-2.252,4.525,4.525,0,0,1,2.984-.925,4.892,4.892,0,0,1,3.124.921,2.717,2.717,0,0,1,1.115,2.324l-.02.056h-2.674a1.353,1.353,0,0,0-.395-1,1.885,1.885,0,0,0-2.209-.062,1.034,1.034,0,0,0-.385.82.934.934,0,0,0,.4.778,4.4,4.4,0,0,0,1.636.54,6.643,6.643,0,0,1,2.818,1.114,2.453,2.453,0,0,1,.919,2.026,2.694,2.694,0,0,1-1.184,2.262,5.141,5.141,0,0,1-3.132.878,4.759,4.759,0,0,1-3.239-1.039,2.9,2.9,0,0,1-1.133-2.367l.019-.057h2.532a1.438,1.438,0,0,0,.541,1.2,2.226,2.226,0,0,0,1.337.37,1.92,1.92,0,0,0,1.172-.3A.979.979,0,0,0,425.99,178.748Z" transform="translate(-362.991 -166.778)" fill="#474648"/>
        <path id="Trazado_287" data-name="Trazado 287" d="M441.365,169.5h-3.907v11.676h-2.77V169.5H430.8v-2.135h10.566Z" transform="translate(-364.13 -166.383)" fill="#911922"/>
        <path id="Trazado_288" data-name="Trazado 288" d="M447.473,181.774a4.625,4.625,0,0,1-3.548-1.423,5.088,5.088,0,0,1-1.328-3.614v-.379a5.614,5.614,0,0,1,1.257-3.766,4.686,4.686,0,0,1,6.6-.218,4.824,4.824,0,0,1,1.147,3.387v1.509h-6.127l-.018.056a2.656,2.656,0,0,0,.677,1.662,2.119,2.119,0,0,0,1.636.652,5.318,5.318,0,0,0,1.526-.185,7.025,7.025,0,0,0,1.328-.583l.749,1.712a5.108,5.108,0,0,1-1.64.853A7.109,7.109,0,0,1,447.473,181.774Zm-.246-8.518a1.441,1.441,0,0,0-1.214.588,3.054,3.054,0,0,0-.55,1.547l.028.047h3.4v-.247a2.227,2.227,0,0,0-.413-1.408A1.487,1.487,0,0,0,447.227,173.256Z" transform="translate(-365.372 -166.778)" fill="#911922"/>
        <path id="Trazado_289" data-name="Trazado 289" d="M458.71,179.64a1.637,1.637,0,0,0,1.186-.429,1.512,1.512,0,0,0,.447-1.145h2.513l.029.056a3.2,3.2,0,0,1-1.172,2.6,4.938,4.938,0,0,1-6.54-.4,5.533,5.533,0,0,1-1.243-3.728v-.285a5.562,5.562,0,0,1,1.238-3.728,4.376,4.376,0,0,1,3.533-1.461,4.309,4.309,0,0,1,3.058,1.082,3.593,3.593,0,0,1,1.125,2.845l-.02.057h-2.522a2.009,2.009,0,0,0-.437-1.323,1.477,1.477,0,0,0-1.2-.527,1.606,1.606,0,0,0-1.551.853,4.686,4.686,0,0,0-.451,2.2v.285a4.667,4.667,0,0,0,.451,2.211A1.619,1.619,0,0,0,458.71,179.64Z" transform="translate(-366.564 -166.778)" fill="#911922"/>
        <path id="Trazado_290" data-name="Trazado 290" d="M468.391,172.1a3.546,3.546,0,0,1,1.186-1.1,3.417,3.417,0,0,1,4.074.674,4.973,4.973,0,0,1,.916,3.3v6.09H471.8v-6.122a2.655,2.655,0,0,0-.421-1.7,1.553,1.553,0,0,0-1.258-.5,2.336,2.336,0,0,0-1,.2,1.927,1.927,0,0,0-.721.574v7.539h-2.768v-14.8h2.768Z" transform="translate(-367.795 -166.267)" fill="#911922"/>
      </g>
    </g>
    <g id="Grupo_15" data-name="Grupo 15" transform="translate(358.788 186.275)">
      <g id="Grupo_14" data-name="Grupo 14">
        <path id="Trazado_291" data-name="Trazado 291" d="M370.967,193.977a.946.946,0,0,0-.319-.727,2.657,2.657,0,0,0-1.133-.492,3.7,3.7,0,0,1-1.535-.707,1.478,1.478,0,0,1-.552-1.176,1.556,1.556,0,0,1,.594-1.24,2.319,2.319,0,0,1,1.541-.5,2.259,2.259,0,0,1,1.619.57,1.7,1.7,0,0,1,.582,1.325l-.008.026h-.8a1.188,1.188,0,0,0-.36-.9,1.727,1.727,0,0,0-1.993-.055.952.952,0,0,0-.334.756.838.838,0,0,0,.361.691,3.419,3.419,0,0,0,1.176.486,3.327,3.327,0,0,1,1.491.732,1.584,1.584,0,0,1,.511,1.2,1.472,1.472,0,0,1-.612,1.233,2.577,2.577,0,0,1-1.6.466,2.725,2.725,0,0,1-1.642-.516,1.567,1.567,0,0,1-.693-1.38l.009-.026h.8a1.073,1.073,0,0,0,.439.929,1.8,1.8,0,0,0,1.086.318,1.663,1.663,0,0,0,1-.272A.873.873,0,0,0,370.967,193.977Z" transform="translate(-367.256 -188.776)" fill="#5b5b5c"/>
        <path id="Trazado_292" data-name="Trazado 292" d="M374.281,191.051l.061.618a1.569,1.569,0,0,1,.572-.52,1.692,1.692,0,0,1,.807-.185,1.4,1.4,0,0,1,.79.217,1.324,1.324,0,0,1,.5.654,1.729,1.729,0,0,1,.574-.637,1.484,1.484,0,0,1,.835-.234,1.369,1.369,0,0,1,1.112.494,2.3,2.3,0,0,1,.408,1.489v2.819H379.1v-2.828a1.593,1.593,0,0,0-.234-.987.846.846,0,0,0-.7-.29.879.879,0,0,0-.7.305,1.333,1.333,0,0,0-.313.771v3.029h-.843v-2.828a1.57,1.57,0,0,0-.241-.969.831.831,0,0,0-.693-.308,1.133,1.133,0,0,0-.63.161,1.033,1.033,0,0,0-.378.453v3.491h-.839v-4.715Z" transform="translate(-367.917 -188.968)" fill="#5b5b5c"/>
        <path id="Trazado_293" data-name="Trazado 293" d="M384.866,195.766c-.028-.142-.049-.268-.065-.377a2.887,2.887,0,0,1-.028-.329,1.986,1.986,0,0,1-.611.569,1.535,1.535,0,0,1-.812.228,1.483,1.483,0,0,1-1.1-.377,1.4,1.4,0,0,1-.377-1.04,1.225,1.225,0,0,1,.534-1.056,2.455,2.455,0,0,1,1.45-.382h.911v-.466a.876.876,0,0,0-.247-.656.956.956,0,0,0-.7-.242,1,1,0,0,0-.659.211.638.638,0,0,0-.253.507h-.8l-.009-.026a1.148,1.148,0,0,1,.475-.941,1.923,1.923,0,0,1,1.292-.427,1.879,1.879,0,0,1,1.262.407,1.46,1.46,0,0,1,.478,1.174v2.271a4.554,4.554,0,0,0,.024.489,2.548,2.548,0,0,0,.095.462Zm-1.391-.632a1.471,1.471,0,0,0,.821-.239,1.13,1.13,0,0,0,.477-.548v-.765h-.941a1.2,1.2,0,0,0-.811.26.785.785,0,0,0-.305.613.655.655,0,0,0,.191.5A.8.8,0,0,0,383.475,195.134Z" transform="translate(-368.795 -188.968)" fill="#5b5b5c"/>
        <path id="Trazado_294" data-name="Trazado 294" d="M389.595,191.809l-.43-.026a.947.947,0,0,0-.56.161,1.044,1.044,0,0,0-.352.454v3.369h-.838v-4.715h.749l.081.688a1.628,1.628,0,0,1,.484-.57,1.11,1.11,0,0,1,.662-.2,1.059,1.059,0,0,1,.18.015,1.236,1.236,0,0,1,.14.032Z" transform="translate(-369.378 -188.968)" fill="#5b5b5c"/>
        <path id="Trazado_295" data-name="Trazado 295" d="M391.889,189.79v1.137h.873v.636h-.873v2.863a.649.649,0,0,0,.134.466.482.482,0,0,0,.356.135.822.822,0,0,0,.16-.017.977.977,0,0,0,.155-.044l.112.589a.754.754,0,0,1-.276.129,1.362,1.362,0,0,1-.363.049,1.077,1.077,0,0,1-.815-.316,1.4,1.4,0,0,1-.3-.991v-2.863h-.733v-.636h.733V189.79Z" transform="translate(-369.684 -188.844)" fill="#5b5b5c"/>
        <path id="Trazado_296" data-name="Trazado 296" d="M396.806,195.585v-6.346h1.9a2.591,2.591,0,0,1,1.955.765,2.728,2.728,0,0,1,.738,1.977v.867a2.718,2.718,0,0,1-.738,1.977,2.6,2.6,0,0,1-1.955.761Zm.838-5.67v4.994h1.065a1.694,1.694,0,0,0,1.357-.579,2.2,2.2,0,0,0,.5-1.484v-.876a2.19,2.19,0,0,0-.5-1.475,1.7,1.7,0,0,0-1.357-.58Z" transform="translate(-370.367 -188.786)" fill="#5b5b5c"/>
        <path id="Trazado_297" data-name="Trazado 297" d="M405.865,195.766c-.029-.142-.05-.268-.065-.377a2.693,2.693,0,0,1-.029-.329,1.986,1.986,0,0,1-.611.569,1.535,1.535,0,0,1-.812.228,1.484,1.484,0,0,1-1.1-.377,1.4,1.4,0,0,1-.377-1.04,1.225,1.225,0,0,1,.534-1.056,2.455,2.455,0,0,1,1.45-.382h.911v-.466a.876.876,0,0,0-.247-.656.955.955,0,0,0-.7-.242,1,1,0,0,0-.659.211.638.638,0,0,0-.253.507h-.8l-.009-.026a1.153,1.153,0,0,1,.475-.941,1.925,1.925,0,0,1,1.292-.427,1.879,1.879,0,0,1,1.262.407,1.46,1.46,0,0,1,.478,1.174v2.271a4.786,4.786,0,0,0,.024.489,2.625,2.625,0,0,0,.095.462Zm-1.392-.632a1.476,1.476,0,0,0,.822-.239,1.128,1.128,0,0,0,.476-.548v-.765h-.941a1.2,1.2,0,0,0-.811.26.784.784,0,0,0-.305.613.655.655,0,0,0,.191.5A.8.8,0,0,0,404.473,195.134Z" transform="translate(-371.006 -188.968)" fill="#5b5b5c"/>
        <path id="Trazado_298" data-name="Trazado 298" d="M409.464,189.79v1.137h.873v.636h-.873v2.863a.649.649,0,0,0,.134.466.479.479,0,0,0,.356.135.829.829,0,0,0,.16-.017,1,1,0,0,0,.155-.044l.111.589a.756.756,0,0,1-.275.129,1.373,1.373,0,0,1-.364.049,1.075,1.075,0,0,1-.814-.316,1.394,1.394,0,0,1-.3-.991v-2.863h-.732v-.636h.732V189.79Z" transform="translate(-371.534 -188.844)" fill="#5b5b5c"/>
        <path id="Trazado_299" data-name="Trazado 299" d="M414.6,195.766c-.028-.142-.05-.268-.065-.377a2.873,2.873,0,0,1-.028-.329,1.986,1.986,0,0,1-.611.569,1.535,1.535,0,0,1-.812.228,1.486,1.486,0,0,1-1.1-.377,1.408,1.408,0,0,1-.376-1.04,1.226,1.226,0,0,1,.533-1.056,2.456,2.456,0,0,1,1.451-.382h.911v-.466a.876.876,0,0,0-.247-.656.957.957,0,0,0-.7-.242.994.994,0,0,0-.658.211.639.639,0,0,0-.254.507h-.8l-.009-.026a1.148,1.148,0,0,1,.475-.941,1.921,1.921,0,0,1,1.292-.427,1.878,1.878,0,0,1,1.262.407,1.46,1.46,0,0,1,.478,1.174v2.271a4.554,4.554,0,0,0,.024.489,2.553,2.553,0,0,0,.095.462Zm-1.392-.632a1.472,1.472,0,0,0,.822-.239,1.13,1.13,0,0,0,.477-.548v-.765h-.941a1.2,1.2,0,0,0-.811.26.785.785,0,0,0-.305.613.658.658,0,0,0,.191.5A.8.8,0,0,0,413.2,195.134Z" transform="translate(-371.924 -188.968)" fill="#5b5b5c"/>
        <path id="Trazado_300" data-name="Trazado 300" d="M423.409,192.778H420.58v2.807h-.838v-6.346h4.1v.676H420.58V192.1h2.828Z" transform="translate(-372.781 -188.786)" fill="#5b5b5c"/>
        <path id="Trazado_301" data-name="Trazado 301" d="M424.926,193.365a2.637,2.637,0,0,1,.553-1.723,2.022,2.022,0,0,1,3.019,0,2.63,2.63,0,0,1,.556,1.725v.1a2.623,2.623,0,0,1-.555,1.725,2.029,2.029,0,0,1-3.017,0,2.614,2.614,0,0,1-.556-1.723Zm.839.094a2.275,2.275,0,0,0,.308,1.237,1.1,1.1,0,0,0,1.831,0,2.275,2.275,0,0,0,.31-1.237v-.1a2.257,2.257,0,0,0-.312-1.232,1.021,1.021,0,0,0-.918-.491,1.008,1.008,0,0,0-.91.491,2.28,2.28,0,0,0-.308,1.232Z" transform="translate(-373.326 -188.968)" fill="#5b5b5c"/>
        <path id="Trazado_302" data-name="Trazado 302" d="M432.867,191.809l-.43-.026a.947.947,0,0,0-.56.161,1.044,1.044,0,0,0-.352.454v3.369h-.838v-4.715h.749l.081.688a1.628,1.628,0,0,1,.484-.57,1.11,1.11,0,0,1,.662-.2,1.067,1.067,0,0,1,.18.015,1.238,1.238,0,0,1,.14.032Z" transform="translate(-373.933 -188.968)" fill="#5b5b5c"/>
        <path id="Trazado_303" data-name="Trazado 303" d="M436.628,195.585v-6.346h1.9a2.591,2.591,0,0,1,1.955.765,2.728,2.728,0,0,1,.738,1.977v.867a2.718,2.718,0,0,1-.738,1.977,2.6,2.6,0,0,1-1.955.761Zm.839-5.67v4.994h1.064a1.694,1.694,0,0,0,1.357-.579,2.2,2.2,0,0,0,.5-1.484v-.876a2.19,2.19,0,0,0-.5-1.475,1.7,1.7,0,0,0-1.357-.58Z" transform="translate(-374.558 -188.786)" fill="#5b5b5c"/>
        <path id="Trazado_304" data-name="Trazado 304" d="M445.055,191.809l-.43-.026a.948.948,0,0,0-.561.161,1.036,1.036,0,0,0-.351.454v3.369h-.839v-4.715h.749l.081.688a1.618,1.618,0,0,1,.484-.57,1.106,1.106,0,0,1,.662-.2,1.047,1.047,0,0,1,.179.015,1.233,1.233,0,0,1,.14.032Z" transform="translate(-375.216 -188.968)" fill="#5b5b5c"/>
        <path id="Trazado_305" data-name="Trazado 305" d="M447.13,189.609h-.838v-.876h.838Zm0,5.922h-.838v-4.715h.838Z" transform="translate(-375.575 -188.733)" fill="#5b5b5c"/>
        <path id="Trazado_306" data-name="Trazado 306" d="M450.161,194.386l.072.331h.026l.081-.331,1.06-3.325h.857l-1.7,4.715h-.635l-1.716-4.715h.861Z" transform="translate(-375.777 -188.978)" fill="#5b5b5c"/>
        <path id="Trazado_307" data-name="Trazado 307" d="M454.49,189.609h-.838v-.876h.838Zm0,5.922h-.838v-4.715h.838Z" transform="translate(-376.35 -188.733)" fill="#5b5b5c"/>
        <path id="Trazado_308" data-name="Trazado 308" d="M456.781,191.051l.06.7a1.707,1.707,0,0,1,.576-.582,1.518,1.518,0,0,1,.79-.207,1.485,1.485,0,0,1,1.155.446,2,2,0,0,1,.409,1.379v2.977h-.838v-2.959a1.3,1.3,0,0,0-.242-.885.951.951,0,0,0-.735-.261,1.169,1.169,0,0,0-.642.179,1.287,1.287,0,0,0-.445.488v3.438h-.838v-4.715Z" transform="translate(-376.6 -188.968)" fill="#5b5b5c"/>
        <path id="Trazado_309" data-name="Trazado 309" d="M461.368,193.5a3.147,3.147,0,0,1,.485-1.834,1.547,1.547,0,0,1,1.34-.7,1.592,1.592,0,0,1,.773.181,1.543,1.543,0,0,1,.553.521l.1-.615h.668v4.741a1.817,1.817,0,0,1-.515,1.392,2.087,2.087,0,0,1-1.486.486,3.1,3.1,0,0,1-.718-.093,2.784,2.784,0,0,1-.678-.255l.212-.667a2.1,2.1,0,0,0,.546.212,2.572,2.572,0,0,0,.63.081,1.011,1.011,0,0,0,1.172-1.155v-.531a1.474,1.474,0,0,1-.541.446,1.648,1.648,0,0,1-.724.15,1.6,1.6,0,0,1-1.333-.627,2.61,2.61,0,0,1-.485-1.643Zm.838.092a2,2,0,0,0,.293,1.142,1.009,1.009,0,0,0,.895.431,1.1,1.1,0,0,0,.634-.176,1.338,1.338,0,0,0,.422-.5v-2.17a1.338,1.338,0,0,0-.422-.478,1.092,1.092,0,0,0-.626-.176.973.973,0,0,0-.9.514,2.6,2.6,0,0,0-.3,1.32Z" transform="translate(-377.162 -188.968)" fill="#5b5b5c"/>
      </g>
    </g>
  </g>
</svg>
