<svg xmlns="http://www.w3.org/2000/svg" width="242.046" height="53.08" viewBox="0 0 242.046 53.08">
  <g id="Grupo_1535" data-name="Grupo 1535" transform="translate(0 0)">
    <g id="Grupo_1013" data-name="Grupo 1013" transform="translate(181.593 0.845)">
      <path id="Trazado_1978" data-name="Trazado 1978" d="M190.631,1297.661l.105-12.672q.044-5.359,2.95-7.856a11.076,11.076,0,0,1,7.583-2.458,12.357,12.357,0,0,1,7.816,2.427,7.652,7.652,0,0,1,2.967,6.384,2.812,2.812,0,0,1-.722,2.22,3.469,3.469,0,0,1-2.253.572q-2.908-.024-2.937-1.887a5.684,5.684,0,0,0-1.108-3.257q-.99-1.258-3.577-1.279-4.769-.039-4.813,5.184l-.105,12.672q-.043,5.225,4.68,5.263a4.618,4.618,0,0,0,3.531-1.288,5.477,5.477,0,0,0,1.281-3.9l.022-2.68-3.679-.031a1.542,1.542,0,0,1-1.334-.693,2.779,2.779,0,0,1-.463-1.639,2.713,2.713,0,0,1,.513-1.608,1.542,1.542,0,0,1,1.323-.693l7.722.064a1.724,1.724,0,0,1,1.359.579,1.966,1.966,0,0,1,.488,1.344l-.045,5.4q-.045,5.405-2.972,7.879a13.287,13.287,0,0,1-15.511-.128Q190.586,1303.067,190.631,1297.661Z" transform="translate(-190.631 -1274.427)" fill="#fff"/>
      <path id="Trazado_1979" data-name="Trazado 1979" d="M237.327,1297.16l.106-12.672q.044-5.4,2.95-7.879a13.291,13.291,0,0,1,15.511.129q2.886,2.524,2.841,7.928l-.105,12.672q-.044,5.405-2.973,7.879a9.817,9.817,0,0,1-3.772,1.952c-1.206.334-3.826,10.361-4.016,10.447-.222.1-3.284-10.232-4.638-10.721a9.508,9.508,0,0,1-3.085-1.806Q237.282,1302.565,237.327,1297.16Zm5.9.049q-.044,5.223,4.681,5.263,4.769.04,4.811-5.183l.106-12.672q.043-5.223-4.725-5.263-4.724-.039-4.767,5.184Z" transform="translate(-214.25 -1274.175)" fill="#fff"/>
    </g>
    <path id="Trazado_1980" data-name="Trazado 1980" d="M241.5,1350.027l6.5,2.6-17.329,6.932-17.763-6.932,6.5-2.6-1.3-3.466-14.73,6.065,27.294,10.4,26.861-9.964-14.73-6.5Z" transform="translate(-15.484 -1309.944)" fill="#fff"/>
    <path id="Trazado_2362" data-name="Trazado 2362" d="M-359.566-57.711v-2.932h21.25v2.932h-8.967v26.477h-3.23V-57.711Zm35.445,23.842,1.232-.127.085,2.507a61.006,61.006,0,0,1-8.287.68q-4.59,0-6.5-2.656t-1.912-8.266q0-11.177,8.882-11.177,4.292,0,6.418,2.4t2.125,7.544l-.17,2.422h-14.025A8.714,8.714,0,0,0-335-35.313q1.275,1.7,4.441,1.7T-324.121-33.868Zm-1.148-9.222q0-3.91-1.254-5.525a4.847,4.847,0,0,0-4.08-1.615,5.229,5.229,0,0,0-4.25,1.7q-1.424,1.7-1.466,5.44Zm8.415,11.857V-61.748h3.188v30.515Zm24.012-2.635,1.232-.127.085,2.507a61.007,61.007,0,0,1-8.287.68q-4.59,0-6.5-2.656t-1.912-8.266q0-11.177,8.882-11.177,4.292,0,6.417,2.4t2.125,7.544l-.17,2.422H-305a8.714,8.714,0,0,0,1.275,5.227q1.275,1.7,4.441,1.7T-292.841-33.868Zm-1.147-9.222q0-3.91-1.254-5.525a4.847,4.847,0,0,0-4.08-1.615,5.229,5.229,0,0,0-4.25,1.7q-1.424,1.7-1.466,5.44Zm11.347,11.857h-3.187v-21.25h3.145V-51a12.045,12.045,0,0,1,6.2-1.913q3.953,0,5.525,2.168a15.6,15.6,0,0,1,3.634-1.509,14.12,14.12,0,0,1,3.931-.659q4.25,0,5.716,2.274t1.466,8.181v11.22h-3.187V-42.368q0-4.42-.85-6.056t-3.612-1.636a11.013,11.013,0,0,0-2.89.4,14.454,14.454,0,0,0-2.295.786l-.807.382q.553,1.4.552,6.2v11.05h-3.187V-42.2q0-4.59-.829-6.226t-3.634-1.636a10.178,10.178,0,0,0-2.784.4,13.127,13.127,0,0,0-2.189.786l-.722.382Zm46.792-2.635,1.232-.127.085,2.507a61.008,61.008,0,0,1-8.288.68q-4.59,0-6.5-2.656t-1.912-8.266q0-11.177,8.882-11.177,4.293,0,6.418,2.4t2.125,7.544l-.17,2.422H-248a8.714,8.714,0,0,0,1.275,5.227q1.275,1.7,4.441,1.7T-235.849-33.868ZM-237-43.091q0-3.91-1.254-5.525a4.847,4.847,0,0,0-4.08-1.615,5.229,5.229,0,0,0-4.25,1.7q-1.424,1.7-1.466,5.44Zm19.04-6.63h-6.757v10.157a13.716,13.716,0,0,0,.531,4.8q.531,1.147,2.529,1.147l3.783-.255.212,2.635a29.069,29.069,0,0,1-4.335.467q-3.315,0-4.59-1.615t-1.275-6.162V-49.721h-3.017v-2.762h3.017v-6.5h3.145v6.5h6.757Zm3.91,18.487v-21.25h3.145v2.89a20.7,20.7,0,0,1,7.777-3.357v3.23a22.894,22.894,0,0,0-3.719,1.062,24.642,24.642,0,0,0-2.954,1.275l-1.062.552v15.6Zm12.707-21.25h3.187L-192.839-34h1.4l5.355-18.487h3.187l-8.84,30.685h-3.187l2.763-9.435H-195.3Z" transform="translate(359.566 61.748)" fill="#fff"/>
  </g>
</svg>
